name,username,password,balance,type
Holli Hebborne,hhebborne0,FZyM39tyHdha,2130,basic
Phylis Piffe,ppiffe1,7fR5Sog8gP,6325,premium
Eulalie Goalby,egoalby2,3bDWnbWRFe3,8780,basic
Shurwood Hastin,shastin3,j7IPWxh8a,8593,basic
Tatiana Sperring,tsperring4,hsLB9YB,367,basic
Natka Legerwood,nlegerwood5,j4tnUV,9100,basic
Elvira Danielovitch,edanielovitch6,w9hlBDgKgoA,7152,basic
Ernest Gross,egross7,zYh9W3DZyEPA,2822.07,basic
Dorothee Pindar,dpindar8,0d3TpHlWT,303,premium
Obidiah Janecek,ojanecek9,HOtwAOpLrfsG,8975,premium
Brendon Hearsum,bhearsuma,Gk51CkakO,1043,premium
Barbe Camps,bcampsb,WEPSgvhZHU,2405,premium
Aubine Jeffels,ajeffelsc,8qCBHJvlz,7054,basic
Auberon Havick,ahavickd,XjLufL,3729,basic
Minne Flippen,mflippene,q1fYDSZ,1387,basic
Susanna Witten,swittenf,MHfUuiKpmC,8199,premium
Francesca Side,fsideg,er4dENRq,452,basic
Kermy Silvester,ksilvesterh,0iQX6Jrr,7313.23,premium
Hiram Souttar,hsouttari,jUCxRni8kr,4862,basic
Sari Kluss,sklussj,C5iKkBr,2048,premium
Tarra Astall,tastallk,oQlr9y,4330,basic
Leontine Zuenelli,lzuenellil,cx2qAO,8738,premium
Roarke Shillam,rshillamm,FMaweN1bDjRx,9487,basic
Alister Lathwood,alathwoodn,iZImovUnUyHP,5895,basic
Andie Blakeborough,ablakeborougho,P1gjHrpeg5,6703,premium
Aubrie Kinleyside,akinleysidep,Krf86eTbT,9455,premium
Dewie Crus,dcrusq,kV6T2tXj,9805,basic
Stevy Wetherell,swetherellr,G0j1YT2hi,7062,basic
Lorry Fairhurst,lfairhursts,7LqhqSZ,3434.64,premium
Gratiana Oakhill,goakhillt,GN3zr9,5542,basic
Mandi Cream,mcreamu,qByUtZbPzJi,660,basic
Tarah Sturdey,tsturdeyv,34HfAIBghET5,9424,basic
Marchelle Lardge,mlardgew,4127TuRGeSpW,3521,premium
Libby Pottes,lpottesx,iIDjSV7,2928,basic
Owen Woodcroft,owoodcrofty,64E0yIa,4316,premium
Leland Gare,lgarez,vgsEOYZnkO,7976,premium
Tiffy Allingham,tallingham10,RNlVxxJ6,6699,basic
Letitia O'Dunniom,lodunniom11,gqyN2MCBng,5838,premium
Loreen Pinchen,lpinchen12,2FV8PYmG,7172.56,basic
Karlotta Haliday,khaliday13,EUvQ2P4YnD7,7239,basic
Nevil Minthorpe,nminthorpe14,rDCi9Ijb4QXW,1474,basic
Kelcey Farrell,kfarrell15,uRHWHl,8738,premium
Lacie Birts,lbirts16,vKQjVs3LOyA,9422,premium
Hilario Gittins,hgittins17,pqEFTEX,3388,premium
Moises Benko,mbenko18,niyMsMb,8742,basic
Rosa Turville,rturville19,D1NQxXy,794,basic
Doris Hornig,dhornig1a,Z3EuImNoTk,2055,premium
Lambert Saby,lsaby1b,GGOiQhD8,1007,premium
Eve Sherlock,esherlock1c,MX0NdQ9jq,5230,basic
Shellie Greensides,sgreensides1d,PqfmYn3Mnr,7374,basic
Faulkner Flores,fflores1e,3CggPUHe,4591.71,basic
Tedie Bracco,tbracco1f,qYdoe27Qe,6847,premium
Corey Woolcocks,cwoolcocks1g,LAx37Nh4iO,1496,basic
Kessia Ackenson,kackenson1h,JJi9VRnE1c,7849,basic
Zita Baseley,zbaseley1i,l7XhyCKo,8135,basic
Laurette Wolvey,lwolvey1j,M9JKOAA3tHg,7422,basic
Tiff Stops,tstops1k,lmipTJot,3673,premium
Luis Tremoille,ltremoille1l,xSEOCNbi,7654,basic
Zita Leile,zleile1m,h4huGTYS,2338,premium
Kayle McIlwrick,kmcilwrick1n,BcDexsh9,3787,basic
Kele Larimer,klarimer1o,6SdIs3T1M,4994,basic
Hobie Crick,hcrick1p,882VLxE,2726,basic
Sherye Castanie,scastanie1q,CM6Tj7vP,4428,basic
Ruy Treske,rtreske1r,vqQRFsF,4426,premium
Bron Jorgensen,bjorgensen1s,FxfTWIBTj1,803,basic
Ruthy Askin,raskin1t,LsPh8m,2914,basic
Grazia Manterfield,gmanterfield1u,OylgqVvF0R,4709,basic
Caril Harbottle,charbottle1v,9jvcAA,4949,basic
Mada Gomby,mgomby1w,QxtLHbJED9U,1961,premium
Nestor Hukin,nhukin1x,f43BP8be,261,premium
Gaven Boissieux,gboissieux1y,zCMSed7K,5676,basic
Giffie Mainds,gmainds1z,itVnZ6ZTku,5462,premium
Hyacinthia Tills,htills20,j3uK9i,6593,premium
Cory Cumberland,ccumberland21,trhNMH4,4855,premium
Roby Menere,rmenere22,haRLKfyL,1965,basic
Adrienne Howlings,ahowlings23,45hgRW0bYlF,998,premium
Waite Cadell,wcadell24,m5fxc2X9oxA,1758,basic
Pegeen Theodore,ptheodore25,z9yCr7wy,6409,premium
Bessie Munt,bmunt26,uTnV22f2vvxG,2151,premium
Farris Simonazzi,fsimonazzi27,B9ylsYVxn4,6,basic
Alvy Ciraldo,aciraldo28,ZVpzfHmjy,8653,basic
Peyton Veale,pveale29,AuLIWoHP,4329,basic
Fawne Collin,fcollin2a,9f7P0G6M4Yp,8179,basic
Aleen Danton,adanton2b,uAsZ4XE,3021,premium
Derby Luckett,dluckett2c,dxyEqXjbMUa,373,premium
Corissa Schurig,cschurig2d,u9r0Ko3W,6714,basic
Mag Husset,mhusset2e,DtzqKSXEgIu,5012,premium
Joey Bruyntjes,jbruyntjes2f,Pa3EXU,6737,premium
Anna-diana Wootton,awootton2g,oPkohlI81e,9486,premium
Olag Coop,ocoop2h,TqR4gx,183,premium
Steve Measey,smeasey2i,5Y12es1ViW,6300,premium
Bradley Cubbinelli,bcubbinelli2j,JbdECEieuHS,9314,premium
Mitchael Issett,missett2k,BP5x5CD,7972,basic
Claribel De Ath,cde2l,0C19SCo76,6611,basic
Athene Immer,aimmer2m,OPRvoZZ0pIu,2074,basic
Jerrome Covotto,jcovotto2n,Ng4HuMF7k8h,1516,premium
Art Kingaby,akingaby2o,iiYjWacqih6K,8915.07,premium
Thorn Gason,tgason2p,k2RKkT2wV0f,7109,basic
Shawn Vitet,svitet2q,GPZDOKMPv,4993,basic
Elladine Cordelette,ecordelette2r,c6xdHlmZE,9960,basic
